{
  "private_key_id": "6b18bb658cd5121ac902f25b5d48546003a83680",
  "private_key": "-----BEGIN PRIVATE KEY-----\nMIIEvQIBADANBgkqhkiG9w0BAQEFAASCBKcwggSjAgEAAoIBAQClP9xelZA7cFVN\nOPS7kQOZsJwYj+3vM+ShUP17pH1IiAO1IYISjqFkkzDL6+ZH3wJN20ThpvV01V8K\n94djMM/KFNcgmXQaCLPWu2cI/WxJrU28iatgMy0MDdYRBLndwjlROKFg23QJC9CW\nutrvZ8LAp+BPXOOj6ey/zQs0hACeda8NdRTGNEex7DvLuSHL7nk4gB5UL3cqqrY3\nSfMNRsAMeCfcgxkO0zSuc0A+nSGZmCkcQjh3tA2RfauGlskQyelPYagfB6MP+6a2\nwZ7ofJRp/i8iboQ8hOicFwkSavEZ44cwdDXlyjGmmtHtURdbtFGlEP/DLw0RStlD\n8Li07wODAgMBAAECggEAE1/9comOs6lkFv3KlANYrLhsVOTrPNSUxeU9EzYiClMI\nPECFg699dNFdM0uhYGPhXUeMN/jfZqdt0VdcZGDgvAzdfFEBr9u9Wjv2xLMR80GC\nj8yEb28QpQ0qQCyRrlKLbd557WVNoZHlDwcxjEhaKUSFpEh72EghHgvoeGvRtsJd\nXL9qFYpq9rFmMleCpO93MiUKJhkaP7NGja5K48R2BhEBXT7rgMNs/Jr1+SGUCcl+\n/PaPSF35dG/FgPjDnAmsH+n9gB3nWMeqxDRkU1+cyszcFcTxLgStxlAGa6k4H9Ly\niyjuaY8yBzrLnx5AT5TZepydaqQ6IOWG7E7z961+QQKBgQDOI87fcSPNovqHMJ5T\nm/ONhDAum9xq+mhI9Tuwng9LCRK9PVTTKb6HYdcmdxrfQ9BgOLKli24WWWOREVc0\nLl63CPqIPVq7MxDEs1v9HCzZmhABKSEvPegyqft38Uh4AVYDXovOge4UNGF12OxP\n1bF0NnwGBNK4Rv8SPkwqJbzIKQKBgQDNOB2m12E3ygjdIHHtWzh7+bwjDivbQP/8\nfCFuNasSDBc1pBogDvYZ6IfCOMxQnY79C+NjhEkadCnDi4+nYaSgsq0KfTbaDCA0\nG63X6TtVt8Esa5u56PYjQXkYAMN2h3WU8NexiPylKU0e+yT3CaMlaZTXYuMJDxJY\nwGqT739TywKBgQC4cJWSmtqcDWz3NOsUh/7c6h9qNI59MVvJm5IyrtmkG5Qmug+B\neGI/I62rfvoONdDlpxVAxYZUfNp3W/qYd7zLLD9tUugxgrlIJeryhxkiAZS8VR6Z\n9FwjqK+VW8+pgBiDnz6cIOjyLwPcu6CEtgC2qGFDyWD4/J0Qp6jiNS26MQKBgF6g\nUHPc/jPmUd38luu2Uz4/MjQL1cccmqzGY/fYgVAqCQ2v5GgB3hKmOOsim3tUm1kt\nASWjGr468AL9uDia+nkqykV65S73xmWgmbFkFvr4ZvdfiwfXVp99EiQyPe7KmTob\nL6nqG2zgtXHipfHPHM4keAA01bEYpQINf1dFaLWvAoGAU0QcAL6Ifr03P1LXo44O\nahsrCcfrV9bFap5qZu236u528W9u923EzwM0jw1Rpypee7u6FnEsazAU/a4JOmCT\nLeYa6/Ug4VeDyhkf4SOUx086SP+/jzs/4d70kug/h6rqoUFuM3YnXMr8t/udkLaR\nzQ1Bh3ZAnZdb32dcocIjvPM\u003d\n-----END PRIVATE KEY-----\n",
  "client_email": "375058760124-e12cbr92kn69t77up5jfbj37llhn9bdk@developer.gserviceaccount.com",
  "client_id": "375058760124-e12cbr92kn69t77up5jfbj37llhn9bdk.apps.googleusercontent.com",
  "type": "service_account"
}